Imputación de Datos
…
miss_var_table(df)

## # A tibble: 3 x 3
##   n_miss_in_var n_vars pct_vars
##           <int>  <int>    <dbl>
## 1             0      5     71.4
## 2            40      1     14.3
## 3           193      1     14.3

miss_case_summary(df)

## # A tibble: 2,037 x 3
##     case n_miss pct_miss
##    <int>  <int>    <dbl>
##  1  2000      2     28.6
##  2  2001      2     28.6
##  3  2017      2     28.6
##  4  2018      2     28.6
##  5  2029      2     28.6
##  6  2030      2     28.6
##  7    17      1     14.3
##  8    39      1     14.3
##  9    57      1     14.3
## 10    91      1     14.3
## # ... with 2,027 more rows
…
## # A tibble: 7 x 4
## # Groups:   "Éxito" [1]
##   `"Éxito"` variable    n_miss pct_miss
##   <chr>     <chr>        <int>    <dbl>
## 1 Éxito     Mes            193     9.47
## 2 Éxito     Edad            40     1.96
## 3 Éxito     NRO VISITAS      0     0   
## 4 Éxito     Éxito            0     0   
## 5 Éxito     CAPITAL          0     0   
## 6 Éxito     Eficiencia       0     0   
## 7 Éxito     Provincia        0     0

df %>% group_by('Éxito') %>% miss_case_summary()

## # A tibble: 2,037 x 4
## # Groups:   "Éxito" [1]
##    `"Éxito"`  case n_miss pct_miss
##    <chr>     <int>  <int>    <dbl>
##  1 Éxito      2000      2     28.6
##  2 Éxito      2001      2     28.6
##  3 Éxito      2017      2     28.6
##  4 Éxito      2018      2     28.6
##  5 Éxito      2029      2     28.6
##  6 Éxito      2030      2     28.6
##  7 Éxito        17      1     14.3
##  8 Éxito        39      1     14.3
##  9 Éxito        57      1     14.3
## 10 Éxito        91      1     14.3
## # ... with 2,027 more rows
…
